ISO-10303-21;
HEADER;
FILE_DESCRIPTION(('STEP AP214'),'1');
FILE_NAME('SOD-123-L','2020-01-24T11:01:21',(''),(''),'','','');
FILE_SCHEMA(('AUTOMOTIVE_DESIGN'));
ENDSEC;
DATA;
#1=SHAPE_DEFINITION_REPRESENTATION(#2,#3);
#2=PRODUCT_DEFINITION_SHAPE('',$,#4);
#3=SHAPE_REPRESENTATION('',(#71,#127,#816,#1686,#19),#11);
#4=PRODUCT_DEFINITION('design','example product_definition',#6,#5);
#5=PRODUCT_DEFINITION_CONTEXT('3D Mechanical Parts',#10,'design');
#6=PRODUCT_DEFINITION_FORMATION('1.0','first version',#8);
#7=APPLICATION_PROTOCOL_DEFINITION('international standard','automotive_design',2003,#10);
#8=PRODUCT('product','part','',(#9));
#9=PRODUCT_CONTEXT('3D Mechanical Parts',#10,'mechanical');
#10=APPLICATION_CONTEXT('Core Data for Automotive Mechanical Design Process');
#11=(GEOMETRIC_REPRESENTATION_CONTEXT(3) GLOBAL_UNCERTAINTY_ASSIGNED_CONTEXT((#12)) GLOBAL_UNIT_ASSIGNED_CONTEXT((#13,#14,#18)) REPRESENTATION_CONTEXT('ID1','3D'));
#12=UNCERTAINTY_MEASURE_WITH_UNIT(LENGTH_MEASURE(1.E-005),#13,'DISTANCE_ACCURACY_VALUE','Maximum model space distance between geometric entities at asserted connectivities');
#13=(LENGTH_UNIT() NAMED_UNIT(*) SI_UNIT(.MILLI.,.METRE.));
#14=(CONVERSION_BASED_UNIT('degree',#16) NAMED_UNIT(#15) PLANE_ANGLE_UNIT());
#15=DIMENSIONAL_EXPONENTS(0.,0.,0.,0.,0.,0.,0.);
#16=MEASURE_WITH_UNIT(PLANE_ANGLE_MEASURE(0.01745329252),#17);
#17=(NAMED_UNIT(*) PLANE_ANGLE_UNIT() SI_UNIT($,.RADIAN.));
#18=(NAMED_UNIT(*) SI_UNIT($,.STERADIAN.) SOLID_ANGLE_UNIT());
#19=AXIS2_PLACEMENT_3D('',#20,#21,#22);
#20=CARTESIAN_POINT('',(0.0,0.0,0.0));
#21=DIRECTION('',(0.0,0.0,1.0));
#22=DIRECTION('',(1.0,0.0,0.0));
#25=MECHANICAL_DESIGN_GEOMETRIC_PRESENTATION_REPRESENTATION($,(#123,#124,#125,#129,#178,#227,#276,#325,#374,#423,#472,#521,#570,#818,#867,#916,#965,#1014,#1063,#1112,#1161,#1210,#1261,#1312,#1363,#1414,#1550,#1688,#1737,#1786,#1835,#1884,#1933,#1982,#2031,#2080,#2131,#2182,#2233,#2284,#2420),#11);
#26=PRODUCT_CATEGORY_RELATIONSHIP('','',#27,#28);
#27=PRODUCT_CATEGORY('part','');
#28=PRODUCT_RELATED_PRODUCT_CATEGORY('','',(#8));
#34=PRESENTATION_STYLE_ASSIGNMENT((#35,#40));
#35=SURFACE_STYLE_USAGE(.BOTH.,#36);
#36=SURFACE_SIDE_STYLE('',(#37));
#37=SURFACE_STYLE_FILL_AREA(#38);
#38=FILL_AREA_STYLE('',(#39));
#39=FILL_AREA_STYLE_COLOUR('',#41);
#40=CURVE_STYLE('',#42,POSITIVE_LENGTH_MEASURE(0.1),#41);
#41=COLOUR_RGB('Aluminum',0.725,0.725,0.725);
#42=DRAUGHTING_PRE_DEFINED_CURVE_FONT('continuous');
#43=PRESENTATION_STYLE_ASSIGNMENT((#44,#49));
#44=SURFACE_STYLE_USAGE(.BOTH.,#45);
#45=SURFACE_SIDE_STYLE('',(#46));
#46=SURFACE_STYLE_FILL_AREA(#47);
#47=FILL_AREA_STYLE('',(#48));
#48=FILL_AREA_STYLE_COLOUR('',#50);
#49=CURVE_STYLE('',#51,POSITIVE_LENGTH_MEASURE(0.1),#50);
#50=COLOUR_RGB('Black',0.196,0.196,0.196);
#51=DRAUGHTING_PRE_DEFINED_CURVE_FONT('continuous');
#52=PRESENTATION_STYLE_ASSIGNMENT((#53,#58));
#53=SURFACE_STYLE_USAGE(.BOTH.,#54);
#54=SURFACE_SIDE_STYLE('',(#55));
#55=SURFACE_STYLE_FILL_AREA(#56);
#56=FILL_AREA_STYLE('',(#57));
#57=FILL_AREA_STYLE_COLOUR('',#59);
#58=CURVE_STYLE('',#60,POSITIVE_LENGTH_MEASURE(0.1),#59);
#59=COLOUR_RGB('Pin1',0.588,0.588,0.588);
#60=DRAUGHTING_PRE_DEFINED_CURVE_FONT('continuous');
#61=PRESENTATION_STYLE_ASSIGNMENT((#62,#67));
#62=SURFACE_STYLE_USAGE(.BOTH.,#63);
#63=SURFACE_SIDE_STYLE('',(#64));
#64=SURFACE_STYLE_FILL_AREA(#65);
#65=FILL_AREA_STYLE('',(#66));
#66=FILL_AREA_STYLE_COLOUR('',#68);
#67=CURVE_STYLE('',#69,POSITIVE_LENGTH_MEASURE(0.1),#68);
#68=COLOUR_RGB('HeatTab',0.588,0.588,0.588);
#69=DRAUGHTING_PRE_DEFINED_CURVE_FONT('continuous');
#71=MANIFOLD_SOLID_BREP($,#72);
#72=CLOSED_SHELL('',(#73,#74,#75));
#73=ADVANCED_FACE($,(#79,#78),#96,.T.);
#74=ADVANCED_FACE($,(#80),#76,.F.);
#75=ADVANCED_FACE($,(#81),#77,.T.);
#76=PLANE($,#101);
#77=PLANE($,#102);
#78=FACE_BOUND($,#83,.T.);
#79=FACE_OUTER_BOUND($,#82,.T.);
#80=FACE_OUTER_BOUND($,#84,.T.);
#81=FACE_OUTER_BOUND($,#85,.T.);
#82=EDGE_LOOP($,(#92));
#83=EDGE_LOOP($,(#93));
#84=EDGE_LOOP($,(#94));
#85=EDGE_LOOP($,(#95));
#86=CIRCLE($,#99,0.07112);
#87=CIRCLE($,#100,0.07112);
#88=VERTEX_POINT('',#117);
#89=VERTEX_POINT('',#119);
#90=EDGE_CURVE($,#88,#88,#86,.T.);
#91=EDGE_CURVE($,#89,#89,#87,.T.);
#92=ORIENTED_EDGE($,*,*,#90,.F.);
#93=ORIENTED_EDGE($,*,*,#91,.F.);
#94=ORIENTED_EDGE($,*,*,#91,.T.);
#95=ORIENTED_EDGE($,*,*,#90,.T.);
#96=CYLINDRICAL_SURFACE($,#98,0.07112);
#97=AXIS2_PLACEMENT_3D('placement',#115,#103,#104);
#98=AXIS2_PLACEMENT_3D($,#116,#105,#106);
#99=AXIS2_PLACEMENT_3D($,#118,#107,#108);
#100=AXIS2_PLACEMENT_3D($,#120,#109,#110);
#101=AXIS2_PLACEMENT_3D($,#121,#111,#112);
#102=AXIS2_PLACEMENT_3D($,#122,#113,#114);
#103=DIRECTION('axis',(0.,1.,0.));
#104=DIRECTION('refdir',(1.,0.,0.));
#105=DIRECTION('',(0.,0.,1.));
#106=DIRECTION('',(1.,0.,0.));
#107=DIRECTION('',(0.,0.,1.));
#108=DIRECTION('',(1.,0.,0.));
#109=DIRECTION('',(0.,0.,-1.));
#110=DIRECTION('',(1.,0.,0.));
#111=DIRECTION('',(0.,0.,1.));
#112=DIRECTION('',(0.,1.,0.));
#113=DIRECTION('',(0.,0.,1.));
#114=DIRECTION('',(0.,1.,0.));
#115=CARTESIAN_POINT('',(0.,0.,0.));
#116=CARTESIAN_POINT('',(-1.138,0.0,1.346));
#117=CARTESIAN_POINT('',(-1.209,0.0,1.349));
#118=CARTESIAN_POINT('',(-1.138,0.0,1.349));
#119=CARTESIAN_POINT('',(-1.209,0.0,1.346));
#120=CARTESIAN_POINT('',(-1.138,0.0,1.346));
#121=CARTESIAN_POINT('',(-1.138,0.0,1.346));
#122=CARTESIAN_POINT('',(-1.138,0.0,1.349));
#123=STYLED_ITEM('color',(#52),#73);
#124=STYLED_ITEM('color',(#52),#74);
#125=STYLED_ITEM('color',(#52),#75);
#127=MANIFOLD_SOLID_BREP($,#128);
#128=CLOSED_SHELL('',(#130,#179,#228,#277,#326,#375,#424,#473,#522,#571));
#129=STYLED_ITEM('',(#43),#130);
#130=ADVANCED_FACE('',(#136),#131,.T.);
#131=PLANE('',#132);
#132=AXIS2_PLACEMENT_3D('',#133,#134,#135);
#133=CARTESIAN_POINT('',(-1.422,-0.902,1.346));
#134=DIRECTION('',(0.0,0.0,1.0));
#135=DIRECTION('',(0.,1.,0.));
#136=FACE_OUTER_BOUND('',#137,.T.);
#137=EDGE_LOOP('',(#138,#148,#158,#168));
#141=CARTESIAN_POINT('',(1.422,-0.902,1.346));
#140=VERTEX_POINT('',#141);
#143=CARTESIAN_POINT('',(-1.422,-0.902,1.346));
#142=VERTEX_POINT('',#143);
#139=EDGE_CURVE('',#140,#142,#144,.T.);
#144=LINE('',#141,#146);
#146=VECTOR('',#147,2.8448);
#147=DIRECTION('',(-1.0,0.0,0.0));
#138=ORIENTED_EDGE('',*,*,#139,.F.);
#151=CARTESIAN_POINT('',(1.422,0.902,1.346));
#150=VERTEX_POINT('',#151);
#149=EDGE_CURVE('',#150,#140,#154,.T.);
#154=LINE('',#151,#156);
#156=VECTOR('',#157,1.8034);
#157=DIRECTION('',(0.0,-1.0,0.0));
#148=ORIENTED_EDGE('',*,*,#149,.F.);
#161=CARTESIAN_POINT('',(-1.422,0.902,1.346));
#160=VERTEX_POINT('',#161);
#159=EDGE_CURVE('',#160,#150,#164,.T.);
#164=LINE('',#161,#166);
#166=VECTOR('',#167,2.8448);
#167=DIRECTION('',(1.0,0.0,0.0));
#158=ORIENTED_EDGE('',*,*,#159,.F.);
#169=EDGE_CURVE('',#142,#160,#174,.T.);
#174=LINE('',#143,#176);
#176=VECTOR('',#177,1.8034);
#177=DIRECTION('',(0.0,1.0,0.0));
#168=ORIENTED_EDGE('',*,*,#169,.F.);
#178=STYLED_ITEM('',(#43),#179);
#179=ADVANCED_FACE('',(#185),#180,.T.);
#180=PLANE('',#181);
#181=AXIS2_PLACEMENT_3D('',#182,#183,#184);
#182=CARTESIAN_POINT('',(-1.295,0.775,0.0));
#183=DIRECTION('',(0.0,0.0,-1.0));
#184=DIRECTION('',(0.,1.,0.));
#185=FACE_OUTER_BOUND('',#186,.T.);
#186=EDGE_LOOP('',(#187,#197,#207,#217));
#190=CARTESIAN_POINT('',(1.295,0.775,0.0));
#189=VERTEX_POINT('',#190);
#192=CARTESIAN_POINT('',(-1.295,0.775,0.0));
#191=VERTEX_POINT('',#192);
#188=EDGE_CURVE('',#189,#191,#193,.T.);
#193=LINE('',#190,#195);
#195=VECTOR('',#196,2.5908);
#196=DIRECTION('',(-1.0,0.0,0.0));
#187=ORIENTED_EDGE('',*,*,#188,.F.);
#200=CARTESIAN_POINT('',(1.295,-0.775,0.0));
#199=VERTEX_POINT('',#200);
#198=EDGE_CURVE('',#199,#189,#203,.T.);
#203=LINE('',#200,#205);
#205=VECTOR('',#206,1.5494);
#206=DIRECTION('',(0.0,1.0,0.0));
#197=ORIENTED_EDGE('',*,*,#198,.F.);
#210=CARTESIAN_POINT('',(-1.295,-0.775,0.0));
#209=VERTEX_POINT('',#210);
#208=EDGE_CURVE('',#209,#199,#213,.T.);
#213=LINE('',#210,#215);
#215=VECTOR('',#216,2.5908);
#216=DIRECTION('',(1.0,0.0,0.0));
#207=ORIENTED_EDGE('',*,*,#208,.F.);
#218=EDGE_CURVE('',#191,#209,#223,.T.);
#223=LINE('',#192,#225);
#225=VECTOR('',#226,1.5494);
#226=DIRECTION('',(0.0,-1.0,0.0));
#217=ORIENTED_EDGE('',*,*,#218,.F.);
#227=STYLED_ITEM('',(#43),#228);
#228=ADVANCED_FACE('',(#234),#229,.T.);
#229=PLANE('',#230);
#230=AXIS2_PLACEMENT_3D('',#231,#232,#233);
#231=CARTESIAN_POINT('',(-1.422,-0.902,0.809));
#232=DIRECTION('',(0.0,-1.0,0.0));
#233=DIRECTION('',(0.,0.,1.));
#234=FACE_OUTER_BOUND('',#235,.T.);
#235=EDGE_LOOP('',(#236,#246,#256,#266));
#239=CARTESIAN_POINT('',(1.422,-0.902,0.809));
#238=VERTEX_POINT('',#239);
#241=CARTESIAN_POINT('',(-1.422,-0.902,0.809));
#240=VERTEX_POINT('',#241);
#237=EDGE_CURVE('',#238,#240,#242,.T.);
#242=LINE('',#239,#244);
#244=VECTOR('',#245,2.8448);
#245=DIRECTION('',(-1.0,0.0,0.0));
#236=ORIENTED_EDGE('',*,*,#237,.F.);
#247=EDGE_CURVE('',#140,#238,#252,.T.);
#252=LINE('',#141,#254);
#254=VECTOR('',#255,0.53702857142857);
#255=DIRECTION('',(0.0,0.0,-1.0));
#246=ORIENTED_EDGE('',*,*,#247,.F.);
#256=ORIENTED_EDGE('',*,*,#139,.T.);
#267=EDGE_CURVE('',#240,#142,#272,.T.);
#272=LINE('',#241,#274);
#274=VECTOR('',#275,0.53702857142857);
#275=DIRECTION('',(0.0,0.0,1.0));
#266=ORIENTED_EDGE('',*,*,#267,.F.);
#276=STYLED_ITEM('',(#43),#277);
#277=ADVANCED_FACE('',(#283),#278,.T.);
#278=PLANE('',#279);
#279=AXIS2_PLACEMENT_3D('',#280,#281,#282);
#280=CARTESIAN_POINT('',(1.422,-0.902,0.809));
#281=DIRECTION('',(1.0,0.0,0.0));
#282=DIRECTION('',(0.,0.,1.));
#283=FACE_OUTER_BOUND('',#284,.T.);
#284=EDGE_LOOP('',(#285,#295,#305,#315));
#288=CARTESIAN_POINT('',(1.422,0.902,0.809));
#287=VERTEX_POINT('',#288);
#286=EDGE_CURVE('',#287,#238,#291,.T.);
#291=LINE('',#288,#293);
#293=VECTOR('',#294,1.8034);
#294=DIRECTION('',(0.0,-1.0,0.0));
#285=ORIENTED_EDGE('',*,*,#286,.F.);
#296=EDGE_CURVE('',#150,#287,#301,.T.);
#301=LINE('',#151,#303);
#303=VECTOR('',#304,0.53702857142857);
#304=DIRECTION('',(0.0,0.0,-1.0));
#295=ORIENTED_EDGE('',*,*,#296,.F.);
#305=ORIENTED_EDGE('',*,*,#149,.T.);
#315=ORIENTED_EDGE('',*,*,#247,.T.);
#325=STYLED_ITEM('',(#43),#326);
#326=ADVANCED_FACE('',(#332),#327,.T.);
#327=PLANE('',#328);
#328=AXIS2_PLACEMENT_3D('',#329,#330,#331);
#329=CARTESIAN_POINT('',(1.422,0.902,0.809));
#330=DIRECTION('',(0.0,1.0,0.0));
#331=DIRECTION('',(0.,0.,1.));
#332=FACE_OUTER_BOUND('',#333,.T.);
#333=EDGE_LOOP('',(#334,#344,#354,#364));
#337=CARTESIAN_POINT('',(-1.422,0.902,0.809));
#336=VERTEX_POINT('',#337);
#335=EDGE_CURVE('',#336,#287,#340,.T.);
#340=LINE('',#337,#342);
#342=VECTOR('',#343,2.8448);
#343=DIRECTION('',(1.0,0.0,0.0));
#334=ORIENTED_EDGE('',*,*,#335,.F.);
#345=EDGE_CURVE('',#160,#336,#350,.T.);
#350=LINE('',#161,#352);
#352=VECTOR('',#353,0.53702857142857);
#353=DIRECTION('',(0.0,0.0,-1.0));
#344=ORIENTED_EDGE('',*,*,#345,.F.);
#354=ORIENTED_EDGE('',*,*,#159,.T.);
#364=ORIENTED_EDGE('',*,*,#296,.T.);
#374=STYLED_ITEM('',(#43),#375);
#375=ADVANCED_FACE('',(#381),#376,.T.);
#376=PLANE('',#377);
#377=AXIS2_PLACEMENT_3D('',#378,#379,#380);
#378=CARTESIAN_POINT('',(-1.422,0.902,0.809));
#379=DIRECTION('',(-1.0,0.0,0.0));
#380=DIRECTION('',(0.,0.,1.));
#381=FACE_OUTER_BOUND('',#382,.T.);
#382=EDGE_LOOP('',(#383,#393,#403,#413));
#384=EDGE_CURVE('',#240,#336,#389,.T.);
#389=LINE('',#241,#391);
#391=VECTOR('',#392,1.8034);
#392=DIRECTION('',(0.0,1.0,0.0));
#383=ORIENTED_EDGE('',*,*,#384,.F.);
#393=ORIENTED_EDGE('',*,*,#267,.T.);
#403=ORIENTED_EDGE('',*,*,#169,.T.);
#413=ORIENTED_EDGE('',*,*,#345,.T.);
#423=STYLED_ITEM('',(#43),#424);
#424=ADVANCED_FACE('',(#430),#425,.T.);
#425=PLANE('',#426);
#426=AXIS2_PLACEMENT_3D('',#427,#428,#429);
#427=CARTESIAN_POINT('',(-1.295,-0.775,0.0));
#428=DIRECTION('',(0.0,-0.988,-0.155));
#429=DIRECTION('',(0.,0.,1.));
#430=FACE_OUTER_BOUND('',#431,.T.);
#431=EDGE_LOOP('',(#432,#442,#452,#462));
#432=ORIENTED_EDGE('',*,*,#208,.T.);
#443=EDGE_CURVE('',#238,#199,#448,.T.);
#448=LINE('',#239,#450);
#450=VECTOR('',#451,0.828864525007753);
#451=DIRECTION('',(-0.153,0.153,-0.976));
#442=ORIENTED_EDGE('',*,*,#443,.F.);
#452=ORIENTED_EDGE('',*,*,#237,.T.);
#463=EDGE_CURVE('',#209,#240,#468,.T.);
#468=LINE('',#210,#470);
#470=VECTOR('',#471,0.828864525007753);
#471=DIRECTION('',(-0.153,-0.153,0.976));
#462=ORIENTED_EDGE('',*,*,#463,.F.);
#472=STYLED_ITEM('',(#43),#473);
#473=ADVANCED_FACE('',(#479),#474,.T.);
#474=PLANE('',#475);
#475=AXIS2_PLACEMENT_3D('',#476,#477,#478);
#476=CARTESIAN_POINT('',(1.295,-0.775,0.0));
#477=DIRECTION('',(0.988,0.0,-0.155));
#478=DIRECTION('',(0.,0.,1.));
#479=FACE_OUTER_BOUND('',#480,.T.);
#480=EDGE_LOOP('',(#481,#491,#501,#511));
#481=ORIENTED_EDGE('',*,*,#198,.T.);
#492=EDGE_CURVE('',#287,#189,#497,.T.);
#497=LINE('',#288,#499);
#499=VECTOR('',#500,0.828864525007753);
#500=DIRECTION('',(-0.153,-0.153,-0.976));
#491=ORIENTED_EDGE('',*,*,#492,.F.);
#501=ORIENTED_EDGE('',*,*,#286,.T.);
#511=ORIENTED_EDGE('',*,*,#443,.T.);
#521=STYLED_ITEM('',(#43),#522);
#522=ADVANCED_FACE('',(#528),#523,.T.);
#523=PLANE('',#524);
#524=AXIS2_PLACEMENT_3D('',#525,#526,#527);
#525=CARTESIAN_POINT('',(1.295,0.775,0.0));
#526=DIRECTION('',(0.0,0.988,-0.155));
#527=DIRECTION('',(0.,0.,1.));
#528=FACE_OUTER_BOUND('',#529,.T.);
#529=EDGE_LOOP('',(#530,#540,#550,#560));
#530=ORIENTED_EDGE('',*,*,#188,.T.);
#541=EDGE_CURVE('',#336,#191,#546,.T.);
#546=LINE('',#337,#548);
#548=VECTOR('',#549,0.828864525007753);
#549=DIRECTION('',(0.153,-0.153,-0.976));
#540=ORIENTED_EDGE('',*,*,#541,.F.);
#550=ORIENTED_EDGE('',*,*,#335,.T.);
#560=ORIENTED_EDGE('',*,*,#492,.T.);
#570=STYLED_ITEM('',(#43),#571);
#571=ADVANCED_FACE('',(#577),#572,.T.);
#572=PLANE('',#573);
#573=AXIS2_PLACEMENT_3D('',#574,#575,#576);
#574=CARTESIAN_POINT('',(-1.295,0.775,0.0));
#575=DIRECTION('',(-0.988,0.0,-0.155));
#576=DIRECTION('',(0.,0.,1.));
#577=FACE_OUTER_BOUND('',#578,.T.);
#578=EDGE_LOOP('',(#579,#589,#599,#609));
#579=ORIENTED_EDGE('',*,*,#218,.T.);
#589=ORIENTED_EDGE('',*,*,#463,.T.);
#599=ORIENTED_EDGE('',*,*,#384,.T.);
#609=ORIENTED_EDGE('',*,*,#541,.T.);
#816=MANIFOLD_SOLID_BREP($,#817);
#817=CLOSED_SHELL('',(#819,#868,#917,#966,#1015,#1064,#1113,#1162,#1211,#1262,#1313,#1364,#1415,#1551));
#818=STYLED_ITEM('',(#34),#819);
#819=ADVANCED_FACE('',(#825),#820,.T.);
#820=PLANE('',#821);
#821=AXIS2_PLACEMENT_3D('',#822,#823,#824);
#822=CARTESIAN_POINT('',(-1.422,-0.356,0.987));
#823=DIRECTION('',(1.0,0.0,0.0));
#824=DIRECTION('',(0.,0.,1.));
#825=FACE_OUTER_BOUND('',#826,.T.);
#826=EDGE_LOOP('',(#827,#837,#847,#857));
#830=CARTESIAN_POINT('',(-1.422,0.356,0.987));
#829=VERTEX_POINT('',#830);
#832=CARTESIAN_POINT('',(-1.422,-0.356,0.987));
#831=VERTEX_POINT('',#832);
#828=EDGE_CURVE('',#829,#831,#833,.T.);
#833=LINE('',#830,#835);
#835=VECTOR('',#836,0.711199989425286);
#836=DIRECTION('',(0.0,-1.0,0.0));
#827=ORIENTED_EDGE('',*,*,#828,.F.);
#840=CARTESIAN_POINT('',(-1.422,0.356,1.089));
#839=VERTEX_POINT('',#840);
#838=EDGE_CURVE('',#839,#829,#843,.T.);
#843=LINE('',#840,#845);
#845=VECTOR('',#846,0.1016);
#846=DIRECTION('',(0.0,0.0,-1.0));
#837=ORIENTED_EDGE('',*,*,#838,.F.);
#850=CARTESIAN_POINT('',(-1.422,-0.356,1.089));
#849=VERTEX_POINT('',#850);
#848=EDGE_CURVE('',#849,#839,#853,.T.);
#853=LINE('',#850,#855);
#855=VECTOR('',#856,0.711199989425286);
#856=DIRECTION('',(0.0,1.0,0.0));
#847=ORIENTED_EDGE('',*,*,#848,.F.);
#858=EDGE_CURVE('',#831,#849,#863,.T.);
#863=LINE('',#832,#865);
#865=VECTOR('',#866,0.1016);
#866=DIRECTION('',(0.0,0.0,1.0));
#857=ORIENTED_EDGE('',*,*,#858,.F.);
#867=STYLED_ITEM('',(#34),#868);
#868=ADVANCED_FACE('',(#874),#869,.T.);
#869=PLANE('',#870);
#870=AXIS2_PLACEMENT_3D('',#871,#872,#873);
#871=CARTESIAN_POINT('',(-1.422,-0.356,1.089));
#872=DIRECTION('',(0.0,0.0,1.0));
#873=DIRECTION('',(0.,1.,0.));
#874=FACE_OUTER_BOUND('',#875,.T.);
#875=EDGE_LOOP('',(#876,#886,#896,#906));
#876=ORIENTED_EDGE('',*,*,#848,.T.);
#889=CARTESIAN_POINT('',(-1.427,0.356,1.089));
#888=VERTEX_POINT('',#889);
#887=EDGE_CURVE('',#888,#839,#892,.T.);
#892=LINE('',#889,#894);
#894=VECTOR('',#895,4.83151681608396E-03);
#895=DIRECTION('',(1.0,0.0,0.0));
#886=ORIENTED_EDGE('',*,*,#887,.F.);
#899=CARTESIAN_POINT('',(-1.427,-0.356,1.089));
#898=VERTEX_POINT('',#899);
#897=EDGE_CURVE('',#898,#888,#902,.T.);
#902=LINE('',#899,#904);
#904=VECTOR('',#905,0.711199989448739);
#905=DIRECTION('',(0.0,1.0,0.0));
#896=ORIENTED_EDGE('',*,*,#897,.F.);
#907=EDGE_CURVE('',#849,#898,#912,.T.);
#912=LINE('',#850,#914);
#914=VECTOR('',#915,4.83151681608378E-03);
#915=DIRECTION('',(-1.0,0.0,0.0));
#906=ORIENTED_EDGE('',*,*,#907,.F.);
#916=STYLED_ITEM('',(#34),#917);
#917=ADVANCED_FACE('',(#923),#918,.T.);
#918=PLANE('',#919);
#919=AXIS2_PLACEMENT_3D('',#920,#921,#922);
#920=CARTESIAN_POINT('',(-1.422,0.356,0.987));
#921=DIRECTION('',(0.0,0.0,-1.0));
#922=DIRECTION('',(0.,1.,0.));
#923=FACE_OUTER_BOUND('',#924,.T.);
#924=EDGE_LOOP('',(#925,#935,#945,#955));
#925=ORIENTED_EDGE('',*,*,#828,.T.);
#938=CARTESIAN_POINT('',(-1.427,-0.356,0.987));
#937=VERTEX_POINT('',#938);
#936=EDGE_CURVE('',#937,#831,#941,.T.);
#941=LINE('',#938,#943);
#943=VECTOR('',#944,4.83151681608378E-03);
#944=DIRECTION('',(1.0,0.0,0.0));
#935=ORIENTED_EDGE('',*,*,#936,.F.);
#948=CARTESIAN_POINT('',(-1.427,0.356,0.987));
#947=VERTEX_POINT('',#948);
#946=EDGE_CURVE('',#947,#937,#951,.T.);
#951=LINE('',#948,#953);
#953=VECTOR('',#954,0.711199989448739);
#954=DIRECTION('',(0.0,-1.0,0.0));
#945=ORIENTED_EDGE('',*,*,#946,.F.);
#956=EDGE_CURVE('',#829,#947,#961,.T.);
#961=LINE('',#830,#963);
#963=VECTOR('',#964,4.83151681608396E-03);
#964=DIRECTION('',(-1.0,0.0,0.0));
#955=ORIENTED_EDGE('',*,*,#956,.F.);
#965=STYLED_ITEM('',(#34),#966);
#966=ADVANCED_FACE('',(#972),#967,.T.);
#967=PLANE('',#968);
#968=AXIS2_PLACEMENT_3D('',#969,#970,#971);
#969=CARTESIAN_POINT('',(-1.827,0.356,0.177));
#970=DIRECTION('',(-0.966,0.0,0.259));
#971=DIRECTION('',(0.,0.,1.));
#972=FACE_OUTER_BOUND('',#973,.T.);
#973=EDGE_LOOP('',(#974,#984,#994,#1004));
#977=CARTESIAN_POINT('',(-1.827,-0.356,0.177));
#976=VERTEX_POINT('',#977);
#979=CARTESIAN_POINT('',(-1.827,0.356,0.177));
#978=VERTEX_POINT('',#979);
#975=EDGE_CURVE('',#976,#978,#980,.T.);
#980=LINE('',#977,#982);
#982=VECTOR('',#983,0.711199995476233);
#983=DIRECTION('',(0.0,1.0,0.0));
#974=ORIENTED_EDGE('',*,*,#975,.F.);
#987=CARTESIAN_POINT('',(-1.624,-0.356,0.938));
#986=VERTEX_POINT('',#987);
#985=EDGE_CURVE('',#986,#976,#990,.T.);
#990=LINE('',#987,#992);
#992=VECTOR('',#993,0.787905164909063);
#993=DIRECTION('',(-0.259,0.0,-0.966));
#984=ORIENTED_EDGE('',*,*,#985,.F.);
#997=CARTESIAN_POINT('',(-1.624,0.356,0.938));
#996=VERTEX_POINT('',#997);
#995=EDGE_CURVE('',#996,#986,#1000,.T.);
#1000=LINE('',#997,#1002);
#1002=VECTOR('',#1003,0.711199991016814);
#1003=DIRECTION('',(0.0,-1.0,0.0));
#994=ORIENTED_EDGE('',*,*,#995,.F.);
#1005=EDGE_CURVE('',#978,#996,#1010,.T.);
#1010=LINE('',#979,#1012);
#1012=VECTOR('',#1013,0.787905164909063);
#1013=DIRECTION('',(0.259,0.0,0.966));
#1004=ORIENTED_EDGE('',*,*,#1005,.F.);
#1014=STYLED_ITEM('',(#34),#1015);
#1015=ADVANCED_FACE('',(#1021),#1016,.T.);
#1016=PLANE('',#1017);
#1017=AXIS2_PLACEMENT_3D('',#1018,#1019,#1020);
#1018=CARTESIAN_POINT('',(-1.729,-0.356,0.151));
#1019=DIRECTION('',(0.966,0.0,-0.259));
#1020=DIRECTION('',(0.,0.,1.));
#1021=FACE_OUTER_BOUND('',#1022,.T.);
#1022=EDGE_LOOP('',(#1023,#1033,#1043,#1053));
#1026=CARTESIAN_POINT('',(-1.729,0.356,0.151));
#1025=VERTEX_POINT('',#1026);
#1028=CARTESIAN_POINT('',(-1.729,-0.356,0.151));
#1027=VERTEX_POINT('',#1028);
#1024=EDGE_CURVE('',#1025,#1027,#1029,.T.);
#1029=LINE('',#1026,#1031);
#1031=VECTOR('',#1032,0.711199992760791);
#1032=DIRECTION('',(0.0,-1.0,0.0));
#1023=ORIENTED_EDGE('',*,*,#1024,.F.);
#1036=CARTESIAN_POINT('',(-1.525,0.356,0.912));
#1035=VERTEX_POINT('',#1036);
#1034=EDGE_CURVE('',#1035,#1025,#1039,.T.);
#1039=LINE('',#1036,#1041);
#1041=VECTOR('',#1042,0.787905165057375);
#1042=DIRECTION('',(-0.259,0.0,-0.966));
#1033=ORIENTED_EDGE('',*,*,#1034,.F.);
#1046=CARTESIAN_POINT('',(-1.525,-0.356,0.912));
#1045=VERTEX_POINT('',#1046);
#1044=EDGE_CURVE('',#1045,#1035,#1049,.T.);
#1049=LINE('',#1046,#1051);
#1051=VECTOR('',#1052,0.71119999005323);
#1052=DIRECTION('',(0.0,1.0,0.0));
#1043=ORIENTED_EDGE('',*,*,#1044,.F.);
#1054=EDGE_CURVE('',#1027,#1045,#1059,.T.);
#1059=LINE('',#1028,#1061);
#1061=VECTOR('',#1062,0.787905165057375);
#1062=DIRECTION('',(0.259,0.0,0.966));
#1053=ORIENTED_EDGE('',*,*,#1054,.F.);
#1063=STYLED_ITEM('',(#34),#1064);
#1064=ADVANCED_FACE('',(#1070),#1065,.T.);
#1065=PLANE('',#1066);
#1066=AXIS2_PLACEMENT_3D('',#1067,#1068,#1069);
#1067=CARTESIAN_POINT('',(-1.93,0.356,0.102));
#1068=DIRECTION('',(0.0,0.0,1.0));
#1069=DIRECTION('',(0.,1.,0.));
#1070=FACE_OUTER_BOUND('',#1071,.T.);
#1071=EDGE_LOOP('',(#1072,#1082,#1092,#1102));
#1075=CARTESIAN_POINT('',(-1.93,-0.356,0.102));
#1074=VERTEX_POINT('',#1075);
#1077=CARTESIAN_POINT('',(-1.93,0.356,0.102));
#1076=VERTEX_POINT('',#1077);
#1073=EDGE_CURVE('',#1074,#1076,#1078,.T.);
#1078=LINE('',#1075,#1080);
#1080=VECTOR('',#1081,0.7112);
#1081=DIRECTION('',(0.0,1.0,0.0));
#1072=ORIENTED_EDGE('',*,*,#1073,.F.);
#1085=CARTESIAN_POINT('',(-1.926,-0.356,0.102));
#1084=VERTEX_POINT('',#1085);
#1083=EDGE_CURVE('',#1084,#1074,#1088,.T.);
#1088=LINE('',#1085,#1090);
#1090=VECTOR('',#1091,4.8315167521475E-03);
#1091=DIRECTION('',(-1.0,0.0,0.0));
#1082=ORIENTED_EDGE('',*,*,#1083,.F.);
#1095=CARTESIAN_POINT('',(-1.926,0.356,0.102));
#1094=VERTEX_POINT('',#1095);
#1093=EDGE_CURVE('',#1094,#1084,#1098,.T.);
#1098=LINE('',#1095,#1100);
#1100=VECTOR('',#1101,0.711199999743558);
#1101=DIRECTION('',(0.0,-1.0,0.0));
#1092=ORIENTED_EDGE('',*,*,#1093,.F.);
#1103=EDGE_CURVE('',#1076,#1094,#1108,.T.);
#1108=LINE('',#1077,#1110);
#1110=VECTOR('',#1111,4.83151675214753E-03);
#1111=DIRECTION('',(1.0,0.0,0.0));
#1102=ORIENTED_EDGE('',*,*,#1103,.F.);
#1112=STYLED_ITEM('',(#34),#1113);
#1113=ADVANCED_FACE('',(#1119),#1114,.T.);
#1114=PLANE('',#1115);
#1115=AXIS2_PLACEMENT_3D('',#1116,#1117,#1118);
#1116=CARTESIAN_POINT('',(-1.926,0.356,0.0));
#1117=DIRECTION('',(0.0,0.0,-1.0));
#1118=DIRECTION('',(0.,1.,0.));
#1119=FACE_OUTER_BOUND('',#1120,.T.);
#1120=EDGE_LOOP('',(#1121,#1131,#1141,#1151));
#1124=CARTESIAN_POINT('',(-1.926,-0.356,0.0));
#1123=VERTEX_POINT('',#1124);
#1126=CARTESIAN_POINT('',(-1.926,0.356,0.0));
#1125=VERTEX_POINT('',#1126);
#1122=EDGE_CURVE('',#1123,#1125,#1127,.T.);
#1127=LINE('',#1124,#1129);
#1129=VECTOR('',#1130,0.711199999743558);
#1130=DIRECTION('',(0.0,1.0,0.0));
#1121=ORIENTED_EDGE('',*,*,#1122,.F.);
#1134=CARTESIAN_POINT('',(-1.93,-0.356,0.0));
#1133=VERTEX_POINT('',#1134);
#1132=EDGE_CURVE('',#1133,#1123,#1137,.T.);
#1137=LINE('',#1134,#1139);
#1139=VECTOR('',#1140,4.8315167521475E-03);
#1140=DIRECTION('',(1.0,0.0,0.0));
#1131=ORIENTED_EDGE('',*,*,#1132,.F.);
#1144=CARTESIAN_POINT('',(-1.93,0.356,0.0));
#1143=VERTEX_POINT('',#1144);
#1142=EDGE_CURVE('',#1143,#1133,#1147,.T.);
#1147=LINE('',#1144,#1149);
#1149=VECTOR('',#1150,0.7112);
#1150=DIRECTION('',(0.0,-1.0,0.0));
#1141=ORIENTED_EDGE('',*,*,#1142,.F.);
#1152=EDGE_CURVE('',#1125,#1143,#1157,.T.);
#1157=LINE('',#1126,#1159);
#1159=VECTOR('',#1160,4.83151675214753E-03);
#1160=DIRECTION('',(-1.0,0.0,0.0));
#1151=ORIENTED_EDGE('',*,*,#1152,.F.);
#1161=STYLED_ITEM('',(#34),#1162);
#1162=ADVANCED_FACE('',(#1168),#1163,.T.);
#1163=PLANE('',#1164);
#1164=AXIS2_PLACEMENT_3D('',#1165,#1166,#1167);
#1165=CARTESIAN_POINT('',(-1.93,0.356,0.0));
#1166=DIRECTION('',(-1.0,0.0,0.0));
#1167=DIRECTION('',(0.,0.,1.));
#1168=FACE_OUTER_BOUND('',#1169,.T.);
#1169=EDGE_LOOP('',(#1170,#1180,#1190,#1200));
#1170=ORIENTED_EDGE('',*,*,#1142,.T.);
#1181=EDGE_CURVE('',#1074,#1133,#1186,.T.);
#1186=LINE('',#1075,#1188);
#1188=VECTOR('',#1189,0.1016);
#1189=DIRECTION('',(0.0,0.0,-1.0));
#1180=ORIENTED_EDGE('',*,*,#1181,.F.);
#1190=ORIENTED_EDGE('',*,*,#1073,.T.);
#1201=EDGE_CURVE('',#1143,#1076,#1206,.T.);
#1206=LINE('',#1144,#1208);
#1208=VECTOR('',#1209,0.1016);
#1209=DIRECTION('',(0.0,0.0,1.0));
#1200=ORIENTED_EDGE('',*,*,#1201,.F.);
#1210=STYLED_ITEM($,(#34),#1211);
#1211=ADVANCED_FACE($,(#1217),#1212,.T.);
#1212=CYLINDRICAL_SURFACE($,#1213,0.2032);
#1213=AXIS2_PLACEMENT_3D($,#1214,#1215,#1216);
#1214=CARTESIAN_POINT('',(-1.427,-0.356,0.885));
#1215=DIRECTION('',(0.0,-1.0,0.0));
#1216=DIRECTION('',(0.,0.,1.));
#1217=FACE_OUTER_BOUND($,#1218,.T.);
#1218=EDGE_LOOP($,(#1230,#1240,#1251,#1219));
#1230=ORIENTED_EDGE('',*,*,#897,.T.);
#1241=EDGE_CURVE($,#996,#888,#1246,.T.);
#1246=CIRCLE($,#1247,0.2032);
#1248=CARTESIAN_POINT('',(-1.427,0.356,0.885));
#1247=AXIS2_PLACEMENT_3D($,#1248,#1249,#1250);
#1249=DIRECTION('',(0.0,1.0,0.0));
#1250=DIRECTION('',(0.793,0.0,0.609));
#1240=ORIENTED_EDGE('',*,*,#1241,.F.);
#1251=ORIENTED_EDGE('',*,*,#995,.T.);
#1220=EDGE_CURVE($,#898,#986,#1225,.T.);
#1225=CIRCLE($,#1226,0.2032);
#1227=CARTESIAN_POINT('',(-1.427,-0.356,0.885));
#1226=AXIS2_PLACEMENT_3D($,#1227,#1228,#1229);
#1228=DIRECTION('',(0.0,-1.0,0.0));
#1229=DIRECTION('',(-0.793,0.0,-0.609));
#1219=ORIENTED_EDGE('',*,*,#1220,.F.);
#1261=STYLED_ITEM($,(#34),#1262);
#1262=ADVANCED_FACE($,(#1268),#1263,.F.);
#1263=CYLINDRICAL_SURFACE($,#1264,0.1016);
#1264=AXIS2_PLACEMENT_3D($,#1265,#1266,#1267);
#1265=CARTESIAN_POINT('',(-1.427,0.356,0.885));
#1266=DIRECTION('',(0.0,-1.0,0.0));
#1267=DIRECTION('',(0.,0.,-1.));
#1268=FACE_OUTER_BOUND($,#1269,.T.);
#1269=EDGE_LOOP($,(#1281,#1291,#1302,#1270));
#1281=ORIENTED_EDGE('',*,*,#946,.T.);
#1292=EDGE_CURVE($,#1045,#937,#1297,.T.);
#1297=CIRCLE($,#1298,0.1016);
#1298=AXIS2_PLACEMENT_3D($,#1227,#1300,#1301);
#1300=DIRECTION('',(0.0,1.0,0.0));
#1301=DIRECTION('',(0.793,0.0,0.609));
#1291=ORIENTED_EDGE('',*,*,#1292,.F.);
#1302=ORIENTED_EDGE('',*,*,#1044,.T.);
#1271=EDGE_CURVE($,#947,#1035,#1276,.T.);
#1276=CIRCLE($,#1277,0.1016);
#1277=AXIS2_PLACEMENT_3D($,#1248,#1279,#1280);
#1279=DIRECTION('',(0.0,-1.0,0.0));
#1280=DIRECTION('',(-0.793,0.0,-0.609));
#1270=ORIENTED_EDGE('',*,*,#1271,.F.);
#1312=STYLED_ITEM($,(#34),#1313);
#1313=ADVANCED_FACE($,(#1319),#1314,.F.);
#1314=CYLINDRICAL_SURFACE($,#1315,0.1016);
#1315=AXIS2_PLACEMENT_3D($,#1316,#1317,#1318);
#1316=CARTESIAN_POINT('',(-1.926,0.356,0.203));
#1317=DIRECTION('',(0.0,-1.0,0.0));
#1318=DIRECTION('',(0.,0.,1.));
#1319=FACE_OUTER_BOUND($,#1320,.T.);
#1320=EDGE_LOOP($,(#1332,#1342,#1353,#1321));
#1332=ORIENTED_EDGE('',*,*,#1093,.T.);
#1343=EDGE_CURVE($,#976,#1084,#1348,.T.);
#1348=CIRCLE($,#1349,0.1016);
#1350=CARTESIAN_POINT('',(-1.926,-0.356,0.203));
#1349=AXIS2_PLACEMENT_3D($,#1350,#1351,#1352);
#1351=DIRECTION('',(0.0,1.0,0.0));
#1352=DIRECTION('',(-0.793,0.0,-0.609));
#1342=ORIENTED_EDGE('',*,*,#1343,.F.);
#1353=ORIENTED_EDGE('',*,*,#975,.T.);
#1322=EDGE_CURVE($,#1094,#978,#1327,.T.);
#1327=CIRCLE($,#1328,0.1016);
#1329=CARTESIAN_POINT('',(-1.926,0.356,0.203));
#1328=AXIS2_PLACEMENT_3D($,#1329,#1330,#1331);
#1330=DIRECTION('',(0.0,-1.0,0.0));
#1331=DIRECTION('',(0.793,0.0,0.609));
#1321=ORIENTED_EDGE('',*,*,#1322,.F.);
#1363=STYLED_ITEM($,(#34),#1364);
#1364=ADVANCED_FACE($,(#1370),#1365,.T.);
#1365=CYLINDRICAL_SURFACE($,#1366,0.2032);
#1366=AXIS2_PLACEMENT_3D($,#1367,#1368,#1369);
#1367=CARTESIAN_POINT('',(-1.926,0.356,0.203));
#1368=DIRECTION('',(0.0,-1.0,0.0));
#1369=DIRECTION('',(0.,0.,-1.));
#1370=FACE_OUTER_BOUND($,#1371,.T.);
#1371=EDGE_LOOP($,(#1383,#1393,#1404,#1372));
#1383=ORIENTED_EDGE('',*,*,#1122,.T.);
#1394=EDGE_CURVE($,#1025,#1125,#1399,.T.);
#1399=CIRCLE($,#1400,0.2032);
#1400=AXIS2_PLACEMENT_3D($,#1329,#1402,#1403);
#1402=DIRECTION('',(0.0,1.0,0.0));
#1403=DIRECTION('',(-0.793,0.0,-0.609));
#1393=ORIENTED_EDGE('',*,*,#1394,.F.);
#1404=ORIENTED_EDGE('',*,*,#1024,.T.);
#1373=EDGE_CURVE($,#1123,#1027,#1378,.T.);
#1378=CIRCLE($,#1379,0.2032);
#1379=AXIS2_PLACEMENT_3D($,#1350,#1381,#1382);
#1381=DIRECTION('',(0.0,-1.0,0.0));
#1382=DIRECTION('',(0.793,0.0,0.609));
#1372=ORIENTED_EDGE('',*,*,#1373,.F.);
#1414=STYLED_ITEM('color',(#34),#1415);
#1415=ADVANCED_FACE($,(#1421),#1416,.T.);
#1416=PLANE($,#1417);
#1417=AXIS2_PLACEMENT_3D($,#1418,#1419,#1420);
#1418=CARTESIAN_POINT('',(-1.422,0.356,0.987));
#1419=DIRECTION('',(0.0,1.0,0.0));
#1420=DIRECTION('',(1.,0.,0.));
#1421=FACE_OUTER_BOUND($,#1422,.T.);
#1422=EDGE_LOOP($,(#1425, #1435, #1445, #1508, #1519, #1455, #1466, #1476, #1486, #1496, #1529, #1539));
#1425=ORIENTED_EDGE('',*,*,#887,.T.);
#1435=ORIENTED_EDGE('',*,*,#838,.T.);
#1445=ORIENTED_EDGE('',*,*,#956,.T.);
#1508=ORIENTED_EDGE('',*,*,#1271,.T.);
#1519=ORIENTED_EDGE('',*,*,#1034,.T.);
#1455=ORIENTED_EDGE('',*,*,#1394,.T.);
#1466=ORIENTED_EDGE('',*,*,#1152,.T.);
#1476=ORIENTED_EDGE('',*,*,#1201,.T.);
#1486=ORIENTED_EDGE('',*,*,#1103,.T.);
#1496=ORIENTED_EDGE('',*,*,#1322,.T.);
#1529=ORIENTED_EDGE('',*,*,#1005,.T.);
#1539=ORIENTED_EDGE('',*,*,#1241,.T.);
#1550=STYLED_ITEM('color',(#34),#1551);
#1551=ADVANCED_FACE($,(#1557),#1552,.T.);
#1552=PLANE($,#1553);
#1553=AXIS2_PLACEMENT_3D($,#1554,#1555,#1556);
#1554=CARTESIAN_POINT('',(-1.926,-0.356,0.102));
#1555=DIRECTION('',(0.0,-1.0,0.0));
#1556=DIRECTION('',(1.,0.,0.));
#1557=FACE_OUTER_BOUND($,#1558,.T.);
#1558=EDGE_LOOP($,(#1561, #1571, #1581, #1644, #1655, #1591, #1602, #1612, #1622, #1632, #1665, #1675));
#1561=ORIENTED_EDGE('',*,*,#936,.T.);
#1571=ORIENTED_EDGE('',*,*,#858,.T.);
#1581=ORIENTED_EDGE('',*,*,#907,.T.);
#1644=ORIENTED_EDGE('',*,*,#1220,.T.);
#1655=ORIENTED_EDGE('',*,*,#985,.T.);
#1591=ORIENTED_EDGE('',*,*,#1343,.T.);
#1602=ORIENTED_EDGE('',*,*,#1083,.T.);
#1612=ORIENTED_EDGE('',*,*,#1181,.T.);
#1622=ORIENTED_EDGE('',*,*,#1132,.T.);
#1632=ORIENTED_EDGE('',*,*,#1373,.T.);
#1665=ORIENTED_EDGE('',*,*,#1054,.T.);
#1675=ORIENTED_EDGE('',*,*,#1292,.T.);
#1686=MANIFOLD_SOLID_BREP($,#1687);
#1687=CLOSED_SHELL('',(#1689,#1738,#1787,#1836,#1885,#1934,#1983,#2032,#2081,#2132,#2183,#2234,#2285,#2421));
#1688=STYLED_ITEM('',(#34),#1689);
#1689=ADVANCED_FACE('',(#1695),#1690,.T.);
#1690=PLANE('',#1691);
#1691=AXIS2_PLACEMENT_3D('',#1692,#1693,#1694);
#1692=CARTESIAN_POINT('',(1.422,0.356,0.987));
#1693=DIRECTION('',(-1.0,0.0,0.0));
#1694=DIRECTION('',(0.,0.,1.));
#1695=FACE_OUTER_BOUND('',#1696,.T.);
#1696=EDGE_LOOP('',(#1697,#1707,#1717,#1727));
#1700=CARTESIAN_POINT('',(1.422,-0.356,0.987));
#1699=VERTEX_POINT('',#1700);
#1702=CARTESIAN_POINT('',(1.422,0.356,0.987));
#1701=VERTEX_POINT('',#1702);
#1698=EDGE_CURVE('',#1699,#1701,#1703,.T.);
#1703=LINE('',#1700,#1705);
#1705=VECTOR('',#1706,0.711199989425287);
#1706=DIRECTION('',(0.0,1.0,0.0));
#1697=ORIENTED_EDGE('',*,*,#1698,.F.);
#1710=CARTESIAN_POINT('',(1.422,-0.356,1.089));
#1709=VERTEX_POINT('',#1710);
#1708=EDGE_CURVE('',#1709,#1699,#1713,.T.);
#1713=LINE('',#1710,#1715);
#1715=VECTOR('',#1716,0.1016);
#1716=DIRECTION('',(0.0,0.0,-1.0));
#1707=ORIENTED_EDGE('',*,*,#1708,.F.);
#1720=CARTESIAN_POINT('',(1.422,0.356,1.089));
#1719=VERTEX_POINT('',#1720);
#1718=EDGE_CURVE('',#1719,#1709,#1723,.T.);
#1723=LINE('',#1720,#1725);
#1725=VECTOR('',#1726,0.711199989425287);
#1726=DIRECTION('',(0.0,-1.0,0.0));
#1717=ORIENTED_EDGE('',*,*,#1718,.F.);
#1728=EDGE_CURVE('',#1701,#1719,#1733,.T.);
#1733=LINE('',#1702,#1735);
#1735=VECTOR('',#1736,0.1016);
#1736=DIRECTION('',(0.0,0.0,1.0));
#1727=ORIENTED_EDGE('',*,*,#1728,.F.);
#1737=STYLED_ITEM('',(#34),#1738);
#1738=ADVANCED_FACE('',(#1744),#1739,.T.);
#1739=PLANE('',#1740);
#1740=AXIS2_PLACEMENT_3D('',#1741,#1742,#1743);
#1741=CARTESIAN_POINT('',(1.422,0.356,1.089));
#1742=DIRECTION('',(0.0,0.0,1.0));
#1743=DIRECTION('',(0.,1.,0.));
#1744=FACE_OUTER_BOUND('',#1745,.T.);
#1745=EDGE_LOOP('',(#1746,#1756,#1766,#1776));
#1746=ORIENTED_EDGE('',*,*,#1718,.T.);
#1759=CARTESIAN_POINT('',(1.427,-0.356,1.089));
#1758=VERTEX_POINT('',#1759);
#1757=EDGE_CURVE('',#1758,#1709,#1762,.T.);
#1762=LINE('',#1759,#1764);
#1764=VECTOR('',#1765,4.83151681608376E-03);
#1765=DIRECTION('',(-1.0,0.0,0.0));
#1756=ORIENTED_EDGE('',*,*,#1757,.F.);
#1769=CARTESIAN_POINT('',(1.427,0.356,1.089));
#1768=VERTEX_POINT('',#1769);
#1767=EDGE_CURVE('',#1768,#1758,#1772,.T.);
#1772=LINE('',#1769,#1774);
#1774=VECTOR('',#1775,0.711199989448739);
#1775=DIRECTION('',(0.0,-1.0,0.0));
#1766=ORIENTED_EDGE('',*,*,#1767,.F.);
#1777=EDGE_CURVE('',#1719,#1768,#1782,.T.);
#1782=LINE('',#1720,#1784);
#1784=VECTOR('',#1785,4.83151681608376E-03);
#1785=DIRECTION('',(1.0,0.0,0.0));
#1776=ORIENTED_EDGE('',*,*,#1777,.F.);
#1786=STYLED_ITEM('',(#34),#1787);
#1787=ADVANCED_FACE('',(#1793),#1788,.T.);
#1788=PLANE('',#1789);
#1789=AXIS2_PLACEMENT_3D('',#1790,#1791,#1792);
#1790=CARTESIAN_POINT('',(1.422,-0.356,0.987));
#1791=DIRECTION('',(0.0,0.0,-1.0));
#1792=DIRECTION('',(0.,1.,0.));
#1793=FACE_OUTER_BOUND('',#1794,.T.);
#1794=EDGE_LOOP('',(#1795,#1805,#1815,#1825));
#1795=ORIENTED_EDGE('',*,*,#1698,.T.);
#1808=CARTESIAN_POINT('',(1.427,0.356,0.987));
#1807=VERTEX_POINT('',#1808);
#1806=EDGE_CURVE('',#1807,#1701,#1811,.T.);
#1811=LINE('',#1808,#1813);
#1813=VECTOR('',#1814,4.83151681608376E-03);
#1814=DIRECTION('',(-1.0,0.0,0.0));
#1805=ORIENTED_EDGE('',*,*,#1806,.F.);
#1818=CARTESIAN_POINT('',(1.427,-0.356,0.987));
#1817=VERTEX_POINT('',#1818);
#1816=EDGE_CURVE('',#1817,#1807,#1821,.T.);
#1821=LINE('',#1818,#1823);
#1823=VECTOR('',#1824,0.711199989448739);
#1824=DIRECTION('',(0.0,1.0,0.0));
#1815=ORIENTED_EDGE('',*,*,#1816,.F.);
#1826=EDGE_CURVE('',#1699,#1817,#1831,.T.);
#1831=LINE('',#1700,#1833);
#1833=VECTOR('',#1834,4.83151681608376E-03);
#1834=DIRECTION('',(1.0,0.0,0.0));
#1825=ORIENTED_EDGE('',*,*,#1826,.F.);
#1835=STYLED_ITEM('',(#34),#1836);
#1836=ADVANCED_FACE('',(#1842),#1837,.T.);
#1837=PLANE('',#1838);
#1838=AXIS2_PLACEMENT_3D('',#1839,#1840,#1841);
#1839=CARTESIAN_POINT('',(1.827,-0.356,0.177));
#1840=DIRECTION('',(0.966,0.0,0.259));
#1841=DIRECTION('',(0.,0.,1.));
#1842=FACE_OUTER_BOUND('',#1843,.T.);
#1843=EDGE_LOOP('',(#1844,#1854,#1864,#1874));
#1847=CARTESIAN_POINT('',(1.827,0.356,0.177));
#1846=VERTEX_POINT('',#1847);
#1849=CARTESIAN_POINT('',(1.827,-0.356,0.177));
#1848=VERTEX_POINT('',#1849);
#1845=EDGE_CURVE('',#1846,#1848,#1850,.T.);
#1850=LINE('',#1847,#1852);
#1852=VECTOR('',#1853,0.711199995476233);
#1853=DIRECTION('',(0.0,-1.0,0.0));
#1844=ORIENTED_EDGE('',*,*,#1845,.F.);
#1857=CARTESIAN_POINT('',(1.624,0.356,0.938));
#1856=VERTEX_POINT('',#1857);
#1855=EDGE_CURVE('',#1856,#1846,#1860,.T.);
#1860=LINE('',#1857,#1862);
#1862=VECTOR('',#1863,0.787905164909063);
#1863=DIRECTION('',(0.259,0.0,-0.966));
#1854=ORIENTED_EDGE('',*,*,#1855,.F.);
#1867=CARTESIAN_POINT('',(1.624,-0.356,0.938));
#1866=VERTEX_POINT('',#1867);
#1865=EDGE_CURVE('',#1866,#1856,#1870,.T.);
#1870=LINE('',#1867,#1872);
#1872=VECTOR('',#1873,0.711199991016814);
#1873=DIRECTION('',(0.0,1.0,0.0));
#1864=ORIENTED_EDGE('',*,*,#1865,.F.);
#1875=EDGE_CURVE('',#1848,#1866,#1880,.T.);
#1880=LINE('',#1849,#1882);
#1882=VECTOR('',#1883,0.787905164909063);
#1883=DIRECTION('',(-0.259,0.0,0.966));
#1874=ORIENTED_EDGE('',*,*,#1875,.F.);
#1884=STYLED_ITEM('',(#34),#1885);
#1885=ADVANCED_FACE('',(#1891),#1886,.T.);
#1886=PLANE('',#1887);
#1887=AXIS2_PLACEMENT_3D('',#1888,#1889,#1890);
#1888=CARTESIAN_POINT('',(1.729,0.356,0.151));
#1889=DIRECTION('',(-0.966,0.0,-0.259));
#1890=DIRECTION('',(0.,0.,1.));
#1891=FACE_OUTER_BOUND('',#1892,.T.);
#1892=EDGE_LOOP('',(#1893,#1903,#1913,#1923));
#1896=CARTESIAN_POINT('',(1.729,-0.356,0.151));
#1895=VERTEX_POINT('',#1896);
#1898=CARTESIAN_POINT('',(1.729,0.356,0.151));
#1897=VERTEX_POINT('',#1898);
#1894=EDGE_CURVE('',#1895,#1897,#1899,.T.);
#1899=LINE('',#1896,#1901);
#1901=VECTOR('',#1902,0.711199992760791);
#1902=DIRECTION('',(0.0,1.0,0.0));
#1893=ORIENTED_EDGE('',*,*,#1894,.F.);
#1906=CARTESIAN_POINT('',(1.525,-0.356,0.912));
#1905=VERTEX_POINT('',#1906);
#1904=EDGE_CURVE('',#1905,#1895,#1909,.T.);
#1909=LINE('',#1906,#1911);
#1911=VECTOR('',#1912,0.787905165057375);
#1912=DIRECTION('',(0.259,0.0,-0.966));
#1903=ORIENTED_EDGE('',*,*,#1904,.F.);
#1916=CARTESIAN_POINT('',(1.525,0.356,0.912));
#1915=VERTEX_POINT('',#1916);
#1914=EDGE_CURVE('',#1915,#1905,#1919,.T.);
#1919=LINE('',#1916,#1921);
#1921=VECTOR('',#1922,0.71119999005323);
#1922=DIRECTION('',(0.0,-1.0,0.0));
#1913=ORIENTED_EDGE('',*,*,#1914,.F.);
#1924=EDGE_CURVE('',#1897,#1915,#1929,.T.);
#1929=LINE('',#1898,#1931);
#1931=VECTOR('',#1932,0.787905165057375);
#1932=DIRECTION('',(-0.259,0.0,0.966));
#1923=ORIENTED_EDGE('',*,*,#1924,.F.);
#1933=STYLED_ITEM('',(#34),#1934);
#1934=ADVANCED_FACE('',(#1940),#1935,.T.);
#1935=PLANE('',#1936);
#1936=AXIS2_PLACEMENT_3D('',#1937,#1938,#1939);
#1937=CARTESIAN_POINT('',(1.93,-0.356,0.102));
#1938=DIRECTION('',(0.0,0.0,1.0));
#1939=DIRECTION('',(0.,1.,0.));
#1940=FACE_OUTER_BOUND('',#1941,.T.);
#1941=EDGE_LOOP('',(#1942,#1952,#1962,#1972));
#1945=CARTESIAN_POINT('',(1.93,0.356,0.102));
#1944=VERTEX_POINT('',#1945);
#1947=CARTESIAN_POINT('',(1.93,-0.356,0.102));
#1946=VERTEX_POINT('',#1947);
#1943=EDGE_CURVE('',#1944,#1946,#1948,.T.);
#1948=LINE('',#1945,#1950);
#1950=VECTOR('',#1951,0.7112);
#1951=DIRECTION('',(0.0,-1.0,0.0));
#1942=ORIENTED_EDGE('',*,*,#1943,.F.);
#1955=CARTESIAN_POINT('',(1.926,0.356,0.102));
#1954=VERTEX_POINT('',#1955);
#1953=EDGE_CURVE('',#1954,#1944,#1958,.T.);
#1958=LINE('',#1955,#1960);
#1960=VECTOR('',#1961,4.83151675214749E-03);
#1961=DIRECTION('',(1.0,0.0,0.0));
#1952=ORIENTED_EDGE('',*,*,#1953,.F.);
#1965=CARTESIAN_POINT('',(1.926,-0.356,0.102));
#1964=VERTEX_POINT('',#1965);
#1963=EDGE_CURVE('',#1964,#1954,#1968,.T.);
#1968=LINE('',#1965,#1970);
#1970=VECTOR('',#1971,0.711199999743558);
#1971=DIRECTION('',(0.0,1.0,0.0));
#1962=ORIENTED_EDGE('',*,*,#1963,.F.);
#1973=EDGE_CURVE('',#1946,#1964,#1978,.T.);
#1978=LINE('',#1947,#1980);
#1980=VECTOR('',#1981,4.83151675214786E-03);
#1981=DIRECTION('',(-1.0,0.0,0.0));
#1972=ORIENTED_EDGE('',*,*,#1973,.F.);
#1982=STYLED_ITEM('',(#34),#1983);
#1983=ADVANCED_FACE('',(#1989),#1984,.T.);
#1984=PLANE('',#1985);
#1985=AXIS2_PLACEMENT_3D('',#1986,#1987,#1988);
#1986=CARTESIAN_POINT('',(1.926,-0.356,0.0));
#1987=DIRECTION('',(0.0,0.0,-1.0));
#1988=DIRECTION('',(0.,1.,0.));
#1989=FACE_OUTER_BOUND('',#1990,.T.);
#1990=EDGE_LOOP('',(#1991,#2001,#2011,#2021));
#1994=CARTESIAN_POINT('',(1.926,0.356,0.0));
#1993=VERTEX_POINT('',#1994);
#1996=CARTESIAN_POINT('',(1.926,-0.356,0.0));
#1995=VERTEX_POINT('',#1996);
#1992=EDGE_CURVE('',#1993,#1995,#1997,.T.);
#1997=LINE('',#1994,#1999);
#1999=VECTOR('',#2000,0.711199999743558);
#2000=DIRECTION('',(0.0,-1.0,0.0));
#1991=ORIENTED_EDGE('',*,*,#1992,.F.);
#2004=CARTESIAN_POINT('',(1.93,0.356,0.0));
#2003=VERTEX_POINT('',#2004);
#2002=EDGE_CURVE('',#2003,#1993,#2007,.T.);
#2007=LINE('',#2004,#2009);
#2009=VECTOR('',#2010,4.83151675214749E-03);
#2010=DIRECTION('',(-1.0,0.0,0.0));
#2001=ORIENTED_EDGE('',*,*,#2002,.F.);
#2014=CARTESIAN_POINT('',(1.93,-0.356,0.0));
#2013=VERTEX_POINT('',#2014);
#2012=EDGE_CURVE('',#2013,#2003,#2017,.T.);
#2017=LINE('',#2014,#2019);
#2019=VECTOR('',#2020,0.7112);
#2020=DIRECTION('',(0.0,1.0,0.0));
#2011=ORIENTED_EDGE('',*,*,#2012,.F.);
#2022=EDGE_CURVE('',#1995,#2013,#2027,.T.);
#2027=LINE('',#1996,#2029);
#2029=VECTOR('',#2030,4.83151675214786E-03);
#2030=DIRECTION('',(1.0,0.0,0.0));
#2021=ORIENTED_EDGE('',*,*,#2022,.F.);
#2031=STYLED_ITEM('',(#34),#2032);
#2032=ADVANCED_FACE('',(#2038),#2033,.T.);
#2033=PLANE('',#2034);
#2034=AXIS2_PLACEMENT_3D('',#2035,#2036,#2037);
#2035=CARTESIAN_POINT('',(1.93,-0.356,0.0));
#2036=DIRECTION('',(1.0,0.0,0.0));
#2037=DIRECTION('',(0.,0.,1.));
#2038=FACE_OUTER_BOUND('',#2039,.T.);
#2039=EDGE_LOOP('',(#2040,#2050,#2060,#2070));
#2040=ORIENTED_EDGE('',*,*,#2012,.T.);
#2051=EDGE_CURVE('',#1944,#2003,#2056,.T.);
#2056=LINE('',#1945,#2058);
#2058=VECTOR('',#2059,0.1016);
#2059=DIRECTION('',(0.0,0.0,-1.0));
#2050=ORIENTED_EDGE('',*,*,#2051,.F.);
#2060=ORIENTED_EDGE('',*,*,#1943,.T.);
#2071=EDGE_CURVE('',#2013,#1946,#2076,.T.);
#2076=LINE('',#2014,#2078);
#2078=VECTOR('',#2079,0.1016);
#2079=DIRECTION('',(0.0,0.0,1.0));
#2070=ORIENTED_EDGE('',*,*,#2071,.F.);
#2080=STYLED_ITEM($,(#34),#2081);
#2081=ADVANCED_FACE($,(#2087),#2082,.T.);
#2082=CYLINDRICAL_SURFACE($,#2083,0.2032);
#2083=AXIS2_PLACEMENT_3D($,#2084,#2085,#2086);
#2084=CARTESIAN_POINT('',(1.427,0.356,0.885));
#2085=DIRECTION('',(0.0,1.0,0.0));
#2086=DIRECTION('',(0.,0.,1.));
#2087=FACE_OUTER_BOUND($,#2088,.T.);
#2088=EDGE_LOOP($,(#2100,#2110,#2121,#2089));
#2100=ORIENTED_EDGE('',*,*,#1767,.T.);
#2111=EDGE_CURVE($,#1866,#1758,#2116,.T.);
#2116=CIRCLE($,#2117,0.2032);
#2118=CARTESIAN_POINT('',(1.427,-0.356,0.885));
#2117=AXIS2_PLACEMENT_3D($,#2118,#2119,#2120);
#2119=DIRECTION('',(0.0,-1.0,0.0));
#2120=DIRECTION('',(-0.793,0.0,0.609));
#2110=ORIENTED_EDGE('',*,*,#2111,.F.);
#2121=ORIENTED_EDGE('',*,*,#1865,.T.);
#2090=EDGE_CURVE($,#1768,#1856,#2095,.T.);
#2095=CIRCLE($,#2096,0.2032);
#2097=CARTESIAN_POINT('',(1.427,0.356,0.885));
#2096=AXIS2_PLACEMENT_3D($,#2097,#2098,#2099);
#2098=DIRECTION('',(0.0,1.0,0.0));
#2099=DIRECTION('',(0.793,0.0,-0.609));
#2089=ORIENTED_EDGE('',*,*,#2090,.F.);
#2131=STYLED_ITEM($,(#34),#2132);
#2132=ADVANCED_FACE($,(#2138),#2133,.F.);
#2133=CYLINDRICAL_SURFACE($,#2134,0.1016);
#2134=AXIS2_PLACEMENT_3D($,#2135,#2136,#2137);
#2135=CARTESIAN_POINT('',(1.427,-0.356,0.885));
#2136=DIRECTION('',(0.0,1.0,0.0));
#2137=DIRECTION('',(0.,0.,-1.));
#2138=FACE_OUTER_BOUND($,#2139,.T.);
#2139=EDGE_LOOP($,(#2151,#2161,#2172,#2140));
#2151=ORIENTED_EDGE('',*,*,#1816,.T.);
#2162=EDGE_CURVE($,#1915,#1807,#2167,.T.);
#2167=CIRCLE($,#2168,0.1016);
#2168=AXIS2_PLACEMENT_3D($,#2097,#2170,#2171);
#2170=DIRECTION('',(0.0,-1.0,0.0));
#2171=DIRECTION('',(-0.793,0.0,0.609));
#2161=ORIENTED_EDGE('',*,*,#2162,.F.);
#2172=ORIENTED_EDGE('',*,*,#1914,.T.);
#2141=EDGE_CURVE($,#1817,#1905,#2146,.T.);
#2146=CIRCLE($,#2147,0.1016);
#2147=AXIS2_PLACEMENT_3D($,#2118,#2149,#2150);
#2149=DIRECTION('',(0.0,1.0,0.0));
#2150=DIRECTION('',(0.793,0.0,-0.609));
#2140=ORIENTED_EDGE('',*,*,#2141,.F.);
#2182=STYLED_ITEM($,(#34),#2183);
#2183=ADVANCED_FACE($,(#2189),#2184,.F.);
#2184=CYLINDRICAL_SURFACE($,#2185,0.1016);
#2185=AXIS2_PLACEMENT_3D($,#2186,#2187,#2188);
#2186=CARTESIAN_POINT('',(1.926,-0.356,0.203));
#2187=DIRECTION('',(0.0,1.0,0.0));
#2188=DIRECTION('',(0.,0.,1.));
#2189=FACE_OUTER_BOUND($,#2190,.T.);
#2190=EDGE_LOOP($,(#2202,#2212,#2223,#2191));
#2202=ORIENTED_EDGE('',*,*,#1963,.T.);
#2213=EDGE_CURVE($,#1846,#1954,#2218,.T.);
#2218=CIRCLE($,#2219,0.1016);
#2220=CARTESIAN_POINT('',(1.926,0.356,0.203));
#2219=AXIS2_PLACEMENT_3D($,#2220,#2221,#2222);
#2221=DIRECTION('',(0.0,-1.0,0.0));
#2222=DIRECTION('',(0.793,0.0,-0.609));
#2212=ORIENTED_EDGE('',*,*,#2213,.F.);
#2223=ORIENTED_EDGE('',*,*,#1845,.T.);
#2192=EDGE_CURVE($,#1964,#1848,#2197,.T.);
#2197=CIRCLE($,#2198,0.1016);
#2199=CARTESIAN_POINT('',(1.926,-0.356,0.203));
#2198=AXIS2_PLACEMENT_3D($,#2199,#2200,#2201);
#2200=DIRECTION('',(0.0,1.0,0.0));
#2201=DIRECTION('',(-0.793,0.0,0.609));
#2191=ORIENTED_EDGE('',*,*,#2192,.F.);
#2233=STYLED_ITEM($,(#34),#2234);
#2234=ADVANCED_FACE($,(#2240),#2235,.T.);
#2235=CYLINDRICAL_SURFACE($,#2236,0.2032);
#2236=AXIS2_PLACEMENT_3D($,#2237,#2238,#2239);
#2237=CARTESIAN_POINT('',(1.926,-0.356,0.203));
#2238=DIRECTION('',(0.0,1.0,0.0));
#2239=DIRECTION('',(0.,0.,-1.));
#2240=FACE_OUTER_BOUND($,#2241,.T.);
#2241=EDGE_LOOP($,(#2253,#2263,#2274,#2242));
#2253=ORIENTED_EDGE('',*,*,#1992,.T.);
#2264=EDGE_CURVE($,#1895,#1995,#2269,.T.);
#2269=CIRCLE($,#2270,0.2032);
#2270=AXIS2_PLACEMENT_3D($,#2199,#2272,#2273);
#2272=DIRECTION('',(0.0,-1.0,0.0));
#2273=DIRECTION('',(0.793,0.0,-0.609));
#2263=ORIENTED_EDGE('',*,*,#2264,.F.);
#2274=ORIENTED_EDGE('',*,*,#1894,.T.);
#2243=EDGE_CURVE($,#1993,#1897,#2248,.T.);
#2248=CIRCLE($,#2249,0.2032);
#2249=AXIS2_PLACEMENT_3D($,#2220,#2251,#2252);
#2251=DIRECTION('',(0.0,1.0,0.0));
#2252=DIRECTION('',(-0.793,0.0,0.609));
#2242=ORIENTED_EDGE('',*,*,#2243,.F.);
#2284=STYLED_ITEM('color',(#34),#2285);
#2285=ADVANCED_FACE($,(#2291),#2286,.T.);
#2286=PLANE($,#2287);
#2287=AXIS2_PLACEMENT_3D($,#2288,#2289,#2290);
#2288=CARTESIAN_POINT('',(1.422,-0.356,0.987));
#2289=DIRECTION('',(0.0,-1.0,0.0));
#2290=DIRECTION('',(1.,0.,0.));
#2291=FACE_OUTER_BOUND($,#2292,.T.);
#2292=EDGE_LOOP($,(#2295, #2305, #2315, #2378, #2389, #2325, #2336, #2346, #2356, #2366, #2399, #2409));
#2295=ORIENTED_EDGE('',*,*,#1757,.T.);
#2305=ORIENTED_EDGE('',*,*,#1708,.T.);
#2315=ORIENTED_EDGE('',*,*,#1826,.T.);
#2378=ORIENTED_EDGE('',*,*,#2141,.T.);
#2389=ORIENTED_EDGE('',*,*,#1904,.T.);
#2325=ORIENTED_EDGE('',*,*,#2264,.T.);
#2336=ORIENTED_EDGE('',*,*,#2022,.T.);
#2346=ORIENTED_EDGE('',*,*,#2071,.T.);
#2356=ORIENTED_EDGE('',*,*,#1973,.T.);
#2366=ORIENTED_EDGE('',*,*,#2192,.T.);
#2399=ORIENTED_EDGE('',*,*,#1875,.T.);
#2409=ORIENTED_EDGE('',*,*,#2111,.T.);
#2420=STYLED_ITEM('color',(#34),#2421);
#2421=ADVANCED_FACE($,(#2427),#2422,.T.);
#2422=PLANE($,#2423);
#2423=AXIS2_PLACEMENT_3D($,#2424,#2425,#2426);
#2424=CARTESIAN_POINT('',(1.926,0.356,0.102));
#2425=DIRECTION('',(0.0,1.0,0.0));
#2426=DIRECTION('',(1.,0.,0.));
#2427=FACE_OUTER_BOUND($,#2428,.T.);
#2428=EDGE_LOOP($,(#2431, #2441, #2451, #2514, #2525, #2461, #2472, #2482, #2492, #2502, #2535, #2545));
#2431=ORIENTED_EDGE('',*,*,#1806,.T.);
#2441=ORIENTED_EDGE('',*,*,#1728,.T.);
#2451=ORIENTED_EDGE('',*,*,#1777,.T.);
#2514=ORIENTED_EDGE('',*,*,#2090,.T.);
#2525=ORIENTED_EDGE('',*,*,#1855,.T.);
#2461=ORIENTED_EDGE('',*,*,#2213,.T.);
#2472=ORIENTED_EDGE('',*,*,#1953,.T.);
#2482=ORIENTED_EDGE('',*,*,#2051,.T.);
#2492=ORIENTED_EDGE('',*,*,#2002,.T.);
#2502=ORIENTED_EDGE('',*,*,#2243,.T.);
#2535=ORIENTED_EDGE('',*,*,#1924,.T.);
#2545=ORIENTED_EDGE('',*,*,#2162,.T.);
ENDSEC;
END-ISO-10303-21;
